{
    "LineOfSight": {
        "hitType": "block",
        "x": -8.0,
        "y": 5.120000004768372,
        "z": -0.5000000000000012,
        "type": "dirt",
        "prop_snowy": false,
        "prop_variant": "dirt",
        "inRange": false,
        "distance": 10.5
    },
    "Hotbar_0_size": 0,
    "Hotbar_0_item": "air",
    "Hotbar_1_size": 0,
    "Hotbar_1_item": "air",
    "Hotbar_2_size": 0,
    "Hotbar_2_item": "air",
    "Hotbar_3_size": 0,
    "Hotbar_3_item": "air",
    "Hotbar_4_size": 0,
    "Hotbar_4_item": "air",
    "Hotbar_5_size": 0,
    "Hotbar_5_item": "air",
    "Hotbar_6_size": 0,
    "Hotbar_6_item": "air",
    "Hotbar_7_size": 0,
    "Hotbar_7_item": "air",
    "Hotbar_8_size": 0,
    "Hotbar_8_item": "air",
    "DistanceTravelled": 0,
    "TimeAlive": 57,
    "MobsKilled": 0,
    "PlayersKilled": 0,
    "DamageTaken": 0,
    "DamageDealt": 0,
    "Life": 20.0,
    "Score": 0,
    "Food": 20,
    "XP": 0,
    "IsAlive": true,
    "Air": 300,
    "Name": "Nb4tf4iBot",
    "XPos": 2.5,
    "YPos": 3.5,
    "ZPos": -0.5,
    "Pitch": 0.0,
    "Yaw": 90.0,
    "WorldTime": 59,
    "TotalTime": 59,
    "nbr3x3": [
        "dirt",
        "dirt",
        "dirt",
        "dirt",
        "dirt",
        "dirt",
        "dirt",
        "dirt",
        "dirt",
        "air",
        "air",
        "air",
        "air",
        "air",
        "air",
        "air",
        "air",
        "air",
        "air",
        "air",
        "air",
        "air",
        "air",
        "air",
        "air",
        "air",
        "air"
    ]
}